EESchema Schematic File Version 4
EELAYER 29 0
EELAYER END
$Descr A4 11693 8268
encoding utf-8
Sheet 1 1
Title ""
Date ""
Rev ""
Comp ""
Comment1 ""
Comment2 ""
Comment3 ""
Comment4 ""
$EndDescr
$Comp
L Transistor_BJT:2N2219 Q2
U 1 1 60B516B1
P 2000 4300
F 0 "Q2" H 2190 4346 50  0000 L CNN
F 1 "2N2219" H 2190 4255 50  0000 L CNN
F 2 "Package_TO_SOT_THT:TO-39-3" H 2200 4225 50  0001 L CIN
F 3 "http://www.onsemi.com/pub_link/Collateral/2N2219-D.PDF" H 2000 4300 50  0001 L CNN
	1    2000 4300
	1    0    0    -1  
$EndComp
$Comp
L Device:R_Small_US R1
U 1 1 60B522CE
P 1350 4300
F 0 "R1" V 1145 4300 50  0000 C CNN
F 1 "2.4k" V 1236 4300 50  0000 C CNN
F 2 "Resistor_SMD:R_0603_1608Metric_Pad1.05x0.95mm_HandSolder" H 1350 4300 50  0001 C CNN
F 3 "~" H 1350 4300 50  0001 C CNN
	1    1350 4300
	0    1    1    0   
$EndComp
$Comp
L Device:R_Small_US R2
U 1 1 60B529A8
P 2100 3650
F 0 "R2" H 2168 3696 50  0000 L CNN
F 1 "430" H 2168 3605 50  0000 L CNN
F 2 "Resistor_SMD:R_0603_1608Metric_Pad1.05x0.95mm_HandSolder" H 2100 3650 50  0001 C CNN
F 3 "~" H 2100 3650 50  0001 C CNN
	1    2100 3650
	1    0    0    -1  
$EndComp
$Comp
L Device:R_Small_US R3
U 1 1 60B52FD7
P 4050 3950
F 0 "R3" V 3845 3950 50  0000 C CNN
F 1 "62" V 3936 3950 50  0000 C CNN
F 2 "Resistor_SMD:R_0603_1608Metric_Pad1.05x0.95mm_HandSolder" H 4050 3950 50  0001 C CNN
F 3 "~" H 4050 3950 50  0001 C CNN
	1    4050 3950
	0    1    1    0   
$EndComp
$Comp
L Device:R_Small_US R4
U 1 1 60B5358E
P 4050 4400
F 0 "R4" V 3845 4400 50  0000 C CNN
F 1 "43" V 3936 4400 50  0000 C CNN
F 2 "Resistor_SMD:R_0603_1608Metric_Pad1.05x0.95mm_HandSolder" H 4050 4400 50  0001 C CNN
F 3 "~" H 4050 4400 50  0001 C CNN
	1    4050 4400
	0    1    1    0   
$EndComp
$Comp
L Device:LED D3
U 1 1 60B53D9F
P 3500 3950
F 0 "D3" H 3493 4166 50  0000 C CNN
F 1 "RED LED" H 3493 4075 50  0000 C CNN
F 2 "Diode_SMD:Diode_Bridge_Diotec_MicroDil_3.0x3.0x1.8mm" H 3500 3950 50  0001 C CNN
F 3 "~" H 3500 3950 50  0001 C CNN
	1    3500 3950
	1    0    0    -1  
$EndComp
$Comp
L Device:LED D4
U 1 1 60B54225
P 3500 4400
F 0 "D4" H 3493 4616 50  0000 C CNN
F 1 "GREEN LED" H 3493 4525 50  0000 C CNN
F 2 "Diode_SMD:Diode_Bridge_Diotec_MicroDil_3.0x3.0x1.8mm" H 3500 4400 50  0001 C CNN
F 3 "~" H 3500 4400 50  0001 C CNN
	1    3500 4400
	1    0    0    -1  
$EndComp
$Comp
L power:GND #PWR0101
U 1 1 60B55112
P 2100 4650
F 0 "#PWR0101" H 2100 4400 50  0001 C CNN
F 1 "GND" H 2105 4477 50  0000 C CNN
F 2 "" H 2100 4650 50  0001 C CNN
F 3 "" H 2100 4650 50  0001 C CNN
	1    2100 4650
	1    0    0    -1  
$EndComp
$Comp
L power:GND #PWR0102
U 1 1 60B553A4
P 3100 4650
F 0 "#PWR0102" H 3100 4400 50  0001 C CNN
F 1 "GND" H 3105 4477 50  0000 C CNN
F 2 "" H 3100 4650 50  0001 C CNN
F 3 "" H 3100 4650 50  0001 C CNN
	1    3100 4650
	1    0    0    -1  
$EndComp
Wire Wire Line
	3350 3950 3100 3950
Wire Wire Line
	3100 3950 3100 4400
Wire Wire Line
	3350 4400 3100 4400
Connection ~ 3100 4400
Wire Wire Line
	3100 4400 3100 4650
Wire Wire Line
	3950 4400 3650 4400
Wire Wire Line
	3950 3950 3650 3950
Wire Wire Line
	4150 3950 4350 3950
Wire Wire Line
	4150 4400 4350 4400
Wire Wire Line
	2100 4500 2100 4650
Wire Wire Line
	1800 4300 1450 4300
Wire Wire Line
	1250 4300 1000 4300
Wire Wire Line
	2100 4100 2100 4050
Wire Wire Line
	2100 3550 2100 3350
Wire Wire Line
	2100 3350 1950 3350
$Comp
L Device:LED D1
U 1 1 60B5757E
P 2100 3900
F 0 "D1" V 2139 3783 50  0000 R CNN
F 1 "BLUE LED" V 2048 3783 50  0000 R CNN
F 2 "Diode_SMD:Diode_Bridge_Diotec_MicroDil_3.0x3.0x1.8mm" H 2100 3900 50  0001 C CNN
F 3 "~" H 2100 3900 50  0001 C CNN
	1    2100 3900
	0    -1   -1   0   
$EndComp
Text GLabel 1000 4300 0    50   Input ~ 0
GPIO17
Text GLabel 4350 3950 2    50   Input ~ 0
GPIO27
Text GLabel 4350 4400 2    50   Input ~ 0
GPIO22
$Comp
L power:+12V #PWR0103
U 1 1 60B5882B
P 1950 3350
F 0 "#PWR0103" H 1950 3200 50  0001 C CNN
F 1 "+12V" H 1965 3523 50  0000 C CNN
F 2 "" H 1950 3350 50  0001 C CNN
F 3 "" H 1950 3350 50  0001 C CNN
	1    1950 3350
	1    0    0    -1  
$EndComp
$Comp
L Device:C C1
U 1 1 60B9CEEE
P 3400 6500
F 0 "C1" H 3515 6546 50  0000 L CNN
F 1 "C" H 3515 6455 50  0000 L CNN
F 2 "Capacitor_SMD:CP_Elec_3x5.3" H 3438 6350 50  0001 C CNN
F 3 "~" H 3400 6500 50  0001 C CNN
	1    3400 6500
	1    0    0    -1  
$EndComp
$Comp
L Device:D_Zener D2
U 1 1 60B9DA75
P 2400 6500
F 0 "D2" H 2400 6716 50  0000 C CNN
F 1 "D_Zener" H 2400 6625 50  0000 C CNN
F 2 "Diode_THT:Diode_Bridge_15.1x15.1x6.3mm_P10.9mm" H 2400 6500 50  0001 C CNN
F 3 "~" H 2400 6500 50  0001 C CNN
	1    2400 6500
	0    1    1    0   
$EndComp
Wire Wire Line
	1800 5350 2400 5350
Wire Wire Line
	2400 6350 2400 5350
Connection ~ 2400 5350
Wire Wire Line
	2400 5350 2750 5350
Wire Wire Line
	3400 5350 3050 5350
Wire Wire Line
	3400 5350 3400 6350
Wire Wire Line
	3400 6600 3400 6650
Wire Wire Line
	3400 7450 2400 7450
Connection ~ 3400 6650
Wire Wire Line
	3400 6650 3400 7450
Wire Wire Line
	2400 6650 2400 7450
Wire Wire Line
	1600 5650 1600 6100
Wire Wire Line
	1400 5350 900  5350
Wire Wire Line
	900  5350 900  6050
Connection ~ 2400 7450
Wire Wire Line
	2400 7450 900  7450
Wire Wire Line
	900  6300 900  7450
Text GLabel 1600 6100 0    50   Input ~ 0
GPIO4
Text GLabel 900  6050 0    50   Input ~ 0
Vin+
Text GLabel 900  6300 0    50   Input ~ 0
GND
Wire Wire Line
	3400 5350 4400 5350
Wire Wire Line
	4400 5350 4400 6350
Connection ~ 3400 5350
Wire Wire Line
	3400 7450 4400 7450
Wire Wire Line
	4400 7450 4400 6650
Connection ~ 3400 7450
Text GLabel 4400 6650 0    50   Input ~ 0
GND
Text GLabel 4400 6350 0    50   Input ~ 0
Vout+
$Comp
L Device:Q_NMOS_DGS Q1
U 1 1 60B9FB78
P 1600 5450
F 0 "Q1" V 1943 5450 50  0000 C CNN
F 1 "Q_NMOS_DGS" V 1852 5450 50  0000 C CNN
F 2 "Package_DirectFET:DirectFET_MN" H 1800 5550 50  0001 C CNN
F 3 "~" H 1600 5450 50  0001 C CNN
	1    1600 5450
	0    -1   -1   0   
$EndComp
$Comp
L Device:L_Core_Ferrite L1
U 1 1 60BA2913
P 2900 5350
F 0 "L1" V 3125 5350 50  0000 C CNN
F 1 "L_Core_Ferrite" V 3034 5350 50  0000 C CNN
F 2 "Connector_JAE:JAE_LY20-4P-DLT1_2x02_P2.00mm_Horizontal" H 2900 5350 50  0001 C CNN
F 3 "~" H 2900 5350 50  0001 C CNN
	1    2900 5350
	0    -1   -1   0   
$EndComp
Text Notes 7950 7350 0    50   ~ 0
MVMAMA001. STLTSE004, MLXBAT001
$Comp
L Device:R_Small_US R6
U 1 1 60B94825
P 4050 2700
F 0 "R6" H 4118 2746 50  0000 L CNN
F 1 "1.2" H 4118 2655 50  0000 L CNN
F 2 "Resistor_SMD:R_0603_1608Metric_Pad1.05x0.95mm_HandSolder" H 4050 2700 50  0001 C CNN
F 3 "~" H 4050 2700 50  0001 C CNN
	1    4050 2700
	1    0    0    -1  
$EndComp
$Comp
L Device:Q_NPN_BCE Q3
U 1 1 60B9940B
P 3950 1900
F 0 "Q3" H 4141 1946 50  0000 L CNN
F 1 "NPN" H 4141 1855 50  0000 L CNN
F 2 "Package_TO_SOT_THT:TO-92" H 4150 2000 50  0001 C CNN
F 3 "~" H 3950 1900 50  0001 C CNN
	1    3950 1900
	1    0    0    -1  
$EndComp
$Comp
L Simulation_SPICE:DIODE D5
U 1 1 60B9A22B
P 3050 2650
F 0 "D5" V 3096 2570 50  0000 R CNN
F 1 "DIODE" V 3005 2570 50  0000 R CNN
F 2 "Diode_SMD:Diode_Bridge_Diotec_MicroDil_3.0x3.0x1.8mm" H 3050 2650 50  0001 C CNN
F 3 "~" H 3050 2650 50  0001 C CNN
F 4 "Y" H 3050 2650 50  0001 L CNN "Spice_Netlist_Enabled"
F 5 "V" H 3050 2650 50  0001 L CNN "Spice_Primitive"
	1    3050 2650
	0    -1   -1   0   
$EndComp
$Comp
L pspice:CAP C3
U 1 1 60B9A79B
P 5250 1500
F 0 "C3" H 5428 1546 50  0000 L CNN
F 1 "470u" H 5428 1455 50  0000 L CNN
F 2 "Capacitor_SMD:CP_Elec_3x5.3" H 5250 1500 50  0001 C CNN
F 3 "~" H 5250 1500 50  0001 C CNN
	1    5250 1500
	1    0    0    -1  
$EndComp
$Comp
L pspice:CAP C2
U 1 1 60B9B529
P 4750 2650
F 0 "C2" H 4928 2696 50  0000 L CNN
F 1 "100n" H 4928 2605 50  0000 L CNN
F 2 "Capacitor_SMD:CP_Elec_3x5.3" H 4750 2650 50  0001 C CNN
F 3 "~" H 4750 2650 50  0001 C CNN
	1    4750 2650
	1    0    0    -1  
$EndComp
$Comp
L power:+36V #PWR0104
U 1 1 60B9C241
P 950 800
F 0 "#PWR0104" H 950 650 50  0001 C CNN
F 1 "+36V" H 965 973 50  0000 C CNN
F 2 "" H 950 800 50  0001 C CNN
F 3 "" H 950 800 50  0001 C CNN
	1    950  800 
	1    0    0    -1  
$EndComp
Wire Wire Line
	5250 3050 5250 1750
Wire Wire Line
	5250 1750 5250 1250
Connection ~ 5250 1750
Wire Wire Line
	950  800  1450 800 
$Comp
L Device:R_POT_US R5
U 1 1 60B9561D
P 1450 1700
F 0 "R5" H 1382 1746 50  0000 R CNN
F 1 "10k" H 1382 1655 50  0000 R CNN
F 2 "Potentiometer_THT:Potentiometer_ACP_CA9-H3,8_Horizontal" H 1450 1700 50  0001 C CNN
F 3 "~" H 1450 1700 50  0001 C CNN
	1    1450 1700
	1    0    0    -1  
$EndComp
Wire Wire Line
	1450 3050 2250 3050
Wire Wire Line
	1450 1850 1450 3050
Wire Wire Line
	2050 1700 1600 1700
Wire Wire Line
	1450 800  1450 1550
Wire Wire Line
	5250 1250 5250 800 
Wire Wire Line
	5250 800  4050 800 
Connection ~ 5250 1250
Connection ~ 1450 800 
Wire Wire Line
	4050 1700 4050 800 
Connection ~ 4050 800 
Wire Wire Line
	4050 2100 4050 2250
Wire Wire Line
	4050 2800 4050 3050
Connection ~ 4050 3050
Wire Wire Line
	4050 3050 4750 3050
Wire Wire Line
	3050 2800 3050 3050
Connection ~ 3050 3050
Wire Wire Line
	3050 3050 3650 3050
Wire Wire Line
	3050 2500 3050 2250
Connection ~ 4050 2250
Wire Wire Line
	4050 2250 4050 2600
Wire Wire Line
	4050 2250 4750 2250
Wire Wire Line
	4750 2250 4750 2400
Wire Wire Line
	4750 2900 4750 3050
Connection ~ 4750 3050
Wire Wire Line
	4750 3050 5250 3050
Wire Wire Line
	2250 2100 2250 3050
Connection ~ 2250 3050
Wire Wire Line
	2250 1500 2250 800 
Connection ~ 2250 800 
Wire Wire Line
	2250 800  1450 800 
Wire Wire Line
	3050 2250 4050 2250
Text Notes 7950 7350 0    50   ~ 0
AMPLIFIER CIRCUIT\n
Text Notes 8650 7500 0    50   ~ 0
01/06/2021\n
$Comp
L power:GND #PWR0105
U 1 1 60BADD00
P 3650 3250
F 0 "#PWR0105" H 3650 3000 50  0001 C CNN
F 1 "GND" H 3655 3077 50  0000 C CNN
F 2 "" H 3650 3250 50  0001 C CNN
F 3 "" H 3650 3250 50  0001 C CNN
	1    3650 3250
	1    0    0    -1  
$EndComp
Wire Wire Line
	2250 800  4050 800 
Wire Wire Line
	2250 3050 3050 3050
Wire Wire Line
	2050 1900 2050 2250
Wire Wire Line
	2050 2250 3050 2250
Connection ~ 3050 2250
Wire Wire Line
	3750 1800 3750 1900
Wire Wire Line
	2650 1800 3750 1800
Wire Wire Line
	3650 3250 3650 3050
Connection ~ 3650 3050
Wire Wire Line
	3650 3050 4050 3050
$Comp
L Amplifier_Operational:LM741 U1
U 1 1 60B926B0
P 2350 1800
F 0 "U1" H 2694 1846 50  0000 L CNN
F 1 "LM741" H 2694 1755 50  0000 L CNN
F 2 "Package_TO_SOT_SMD:Analog_KS-4" H 2400 1850 50  0001 C CNN
F 3 "http://www.ti.com/lit/ds/symlink/lm741.pdf" H 2500 1950 50  0001 C CNN
	1    2350 1800
	1    0    0    -1  
$EndComp
NoConn ~ 2450 2100
NoConn ~ 2350 2100
Wire Wire Line
	4750 2250 5750 2250
Connection ~ 4750 2250
Text GLabel 5750 2250 2    50   Input ~ 0
GPIO1
$Comp
L Connector_Generic:Conn_02x20_Odd_Even J1
U 1 1 60BCC6E0
P 7000 3350
F 0 "J1" H 7050 4467 50  0000 C CNN
F 1 "Conn_02x20_Odd_Even" H 7050 4376 50  0000 C CNN
F 2 "Connector_JAE:JAE_LY20-40P-DT1_2x20_P2.00mm_Vertical" H 7000 3350 50  0001 C CNN
F 3 "~" H 7000 3350 50  0001 C CNN
	1    7000 3350
	1    0    0    -1  
$EndComp
Text GLabel 6800 2450 0    50   Input ~ 0
3V3
Text GLabel 7300 2450 2    50   Input ~ 0
5V
Text GLabel 6800 2550 0    50   Input ~ 0
GPIO2
Text GLabel 6800 2650 0    50   Input ~ 0
GPIO3
Text GLabel 6800 2750 0    50   Input ~ 0
GPIO4
Text GLabel 6800 2850 0    50   Input ~ 0
GROUND
Text GLabel 6800 2950 0    50   Input ~ 0
GPIO17
Text GLabel 6800 3050 0    50   Input ~ 0
GPIO27
Text GLabel 6800 3150 0    50   Input ~ 0
GPIO22
Text GLabel 6800 3250 0    50   Input ~ 0
3V3
Text GLabel 6800 3350 0    50   Input ~ 0
GPIO10
Text GLabel 6800 3450 0    50   Input ~ 0
GPIO9
Text GLabel 6800 3550 0    50   Input ~ 0
GPIO11
Text GLabel 6800 3650 0    50   Input ~ 0
GROUND
Text GLabel 6800 3750 0    50   Input ~ 0
ID_SD
Text GLabel 6800 3850 0    50   Input ~ 0
GPIO5
Text GLabel 6800 3950 0    50   Input ~ 0
GPIO6
Text GLabel 6800 4050 0    50   Input ~ 0
GPIO13
Text GLabel 6800 4150 0    50   Input ~ 0
GPIO19
Text GLabel 6800 4250 0    50   Input ~ 0
GPIO26
Text GLabel 6800 4350 0    50   Input ~ 0
GROUND
Text GLabel 7300 2550 2    50   Input ~ 0
5V
Text GLabel 7300 2650 2    50   Input ~ 0
GROUND
Text GLabel 7300 2750 2    50   Input ~ 0
GPIO14
Text GLabel 7300 2850 2    50   Input ~ 0
GPIO15
Text GLabel 7300 2950 2    50   Input ~ 0
GPIO18
Text GLabel 7300 3050 2    50   Input ~ 0
GROUND
Text GLabel 7300 3150 2    50   Input ~ 0
GPIO23
Text GLabel 7300 3250 2    50   Input ~ 0
GPIO24
Text GLabel 7300 3350 2    50   Input ~ 0
GROUND
Text GLabel 7300 3450 2    50   Input ~ 0
GPIO26
Text GLabel 7300 3550 2    50   Input ~ 0
GPIO8
Text GLabel 7300 3650 2    50   Input ~ 0
GPIO7
Text GLabel 7300 3750 2    50   Input ~ 0
ID_SD
Text GLabel 7300 3850 2    50   Input ~ 0
GROUND
Text GLabel 7300 3950 2    50   Input ~ 0
GPIO12
Text GLabel 7300 4050 2    50   Input ~ 0
GROUND
Text GLabel 7300 4150 2    50   Input ~ 0
GPIO16
Text GLabel 7300 4250 2    50   Input ~ 0
GPIO20
Text GLabel 7300 4350 2    50   Input ~ 0
GPIO21
$EndSCHEMATC
